Assignment 1/Question 1/RCA_8_tb.vcd
$date
	Sat Jan 22 00:23:39 2022
$end
$version
	Icarus Verilog
$end
$timescale
	1ns
$end
$scope module RCA_8_tb $end
$var wire 8 ! S [7:0] $end
$var wire 1 " C_out $end
$var reg 8 # A [7:0] $end
$var reg 8 $ B [7:0] $end
$var reg 1 % C_in $end
$var integer 32 & i [31:0] $end
$var integer 32 ' j [31:0] $end
$scope module uut $end
$var wire 8 ( A [7:0] $end
$var wire 8 ) B [7:0] $end
$var wire 1 % C_in $end
$var wire 8 * S [7:0] $end
$var wire 1 " C_out $end
$scope module f1 $end
$var wire 1 + A $end
$var wire 1 , B $end
$var wire 1 % C_in $end
$var wire 1 - C_out $end
$var wire 1 . S $end
$upscope $end
$scope module f2 $end
$var wire 1 / A $end
$var wire 1 0 B $end
$var wire 1 - C_in $end
$var wire 1 1 C_out $end
$var wire 1 2 S $end
$upscope $end
$scope module f3 $end
$var wire 1 3 A $end
$var wire 1 4 B $end
$var wire 1 1 C_in $end
$var wire 1 5 C_out $end
$var wire 1 6 S $end
$upscope $end
$scope module f4 $end
$var wire 1 7 A $end
$var wire 1 8 B $end
$var wire 1 5 C_in $end
$var wire 1 9 C_out $end
$var wire 1 : S $end
$upscope $end
$scope module f5 $end
$var wire 1 ; A $end
$var wire 1 < B $end
$var wire 1 9 C_in $end
$var wire 1 = C_out $end
$var wire 1 > S $end
$upscope $end
$scope module f6 $end
$var wire 1 ? A $end
$var wire 1 @ B $end
$var wire 1 = C_in $end
$var wire 1 A C_out $end
$var wire 1 B S $end
$upscope $end
$scope module f7 $end
$var wire 1 C A $end
$var wire 1 D B $end
$var wire 1 A C_in $end
$var wire 1 E C_out $end
$var wire 1 F S $end
$upscope $end
$scope module f8 $end
$var wire 1 G A $end
$var wire 1 H B $end
$var wire 1 E C_in $end
$var wire 1 " C_out $end
$var wire 1 I S $end
$upscope $end
$upscope $end
$upscope $end
$enddefinitions $end
#0
$dumpvars
0I
0H
0G
0F
0E
0D
0C
0B
0A
0@
0?
0>
0=
0<
0;
0:
09
08
07
06
05
04
03
02
01
00
0/
0.
0-
0,
0+
b0 *
b0 )
b0 (
b0 '
b0 &
0%
b0 $
b0 #
0"
b0 !
$end
#5
b1 '
#10
b1 !
b1 *
1.
1,
b1 $
b1 )
b10 '
#15
0.
b10 !
b10 *
12
0,
10
b10 $
b10 )
b11 '
#20
b11 !
b11 *
1.
1,
b11 $
b11 )
b1 &
b0 '
#25
b1 !
b1 *
02
0,
00
1+
b0 $
b0 )
b1 #
b1 (
b1 '
#30
12
1-
b10 !
b10 *
0.
1,
b1 $
b1 )
b10 '
#35
06
0-
01
1.
b11 !
b11 *
12
0,
10
b10 $
b10 )
b11 '
#40
16
11
02
1-
b100 !
b100 *
0.
1,
b11 $
b11 )
b10 &
b0 '
#45
06
01
b10 !
b10 *
12
0-
0,
00
0+
1/
b0 $
b0 )
b10 #
b10 (
b1 '
#50
b11 !
b11 *
1.
1,
b1 $
b1 )
b10 '
#55
16
11
0.
b100 !
b100 *
02
0,
10
b10 $
b10 )
b11 '
#60
b101 !
b101 *
1.
1,
b11 $
b11 )
b11 &
b0 '
#65
06
01
b11 !
b11 *
12
0,
00
1+
b0 $
b0 )
b11 #
b11 (
b1 '
#70
16
11
02
1-
b100 !
b100 *
0.
1,
b1 $
b1 )
b10 '
#75
0-
1.
b101 !
b101 *
02
0,
10
b10 $
b10 )
b11 '
#80
12
1-
b110 !
b110 *
0.
1,
b11 $
b11 )
b100 &
b100 '
