Assignment 1/Question 3/two_to_four_tb.vcd
$date
	Tue Jan 18 17:28:36 2022
$end
$version
	Icarus Verilog
$end
$timescale
	1ns
$end
$scope module two_to_four_tb $end
$var wire 1 ! Y3 $end
$var wire 1 " Y2 $end
$var wire 1 # Y1 $end
$var wire 1 $ Y0 $end
$var reg 1 % A0 $end
$var reg 1 & A1 $end
$var reg 1 ' enable $end
$var integer 32 ( i [31:0] $end
$scope module uut $end
$var wire 1 % A0 $end
$var wire 1 & A1 $end
$var wire 1 ' enable $end
$var reg 1 $ Y0 $end
$var reg 1 # Y1 $end
$var reg 1 " Y2 $end
$var reg 1 ! Y3 $end
$upscope $end
$upscope $end
$enddefinitions $end
#0
$dumpvars
b0 (
0'
0&
0%
0$
0#
0"
0!
$end
#5
b1 (
#10
1%
b10 (
#15
1&
0%
b11 (
#20
1%
b100 (
#25
1$
1'
0&
0%
b101 (
#30
0$
1#
1%
b110 (
#35
0#
1"
1&
0%
b111 (
#40
0"
1!
1%
b1000 (
